n = 25238622798556177989333209740282896205295
251519276501227982869528193250111143253815649
672223294543150699671632190497405101312000824
273679453005606526403518955838432517679982616
004661698854784298719865685456958392424471860
704744206332658981554273020836955030918585803
422576085960043527946106491370254230114613432
126417646734343372077792185950306329031637226
289725536711388981780513335683115116262699532
608883254106205051212525550618420540907039537
743159469115697950434216824604540315326127559
597993508212123388278601954262885538454856351
629134560143598219834244256642888890733085114
074739657977291861049230016444881907

e = 0x10001

c = 16335323244320319652436010213253936633184
320852148729765336956443678113226034705605255
681127140824742714842869878564380464639871083
449905095838831597109758187526822704134825411
615889839739560806177122042264276028216375832
411482149635105045083617040948601551511701229
607672317539244998131115238662913255844832158
484287237205377703263024575667274839405079372
649203708245736613032618668552449707523429233
036217707544067926806040310688148266805154398
858727149597840587884078125165630323235563448
620423189489398632129653399623362448540436623
059809960003750289248580002169032930420780051
412212880301302903158589212677913419

FLAG = c

Yaman